02_Exploration
…
#Missing data information 
miss_var_summary(study_dat) 

## # A tibble: 39 × 3
##    variable              n_miss pct_miss
##    <chr>                  <int>    <num>
##  1 age_first_drug_02       7593     99.9
##  2 marijuana               5732     75.4
##  3 physical_env_risk_cat   5045     66.4
##  4 num_cigs_02             4775     62.8
##  5 avg_dad_pmk_cat         4418     58.1
##  6 baseline_dad_pmk        4146     54.6
##  7 baseline_dad_pmk_cat    4146     54.6
##  8 avg_dad_pmk             3829     50.4
##  9 avg_mom_pmk_cat         3736     49.2
## 10 physical_env_risk_num   3455     45.5
## # ℹ 29 more rows
…
